%YAML 1.1
%TAG !u! tag:unity3d.com,2011:
--- !u!74 &7400000
AnimationClip:
  m_ObjectHideFlags: 0
  m_CorrespondingSourceObject: {fileID: 0}
  m_PrefabInstance: {fileID: 0}
  m_PrefabAsset: {fileID: 0}
  m_Name: bunny run-idle blend
  serializedVersion: 6
  m_Legacy: 0
  m_Compressed: 0
  m_UseHighQualityCurve: 1
  m_RotationCurves: []
  m_CompressedRotationCurves: []
  m_EulerCurves: []
  m_PositionCurves: []
  m_ScaleCurves: []
  m_FloatCurves: []
  m_PPtrCurves:
  - curve:
    - time: 0
      value: {fileID: 21300000, guid: b789a9545a25bd640b6e0764f0c0a5be, type: 3}
    - time: 0.033333335
      value: {fileID: 21300000, guid: a03d77a099e5e6248b21dfde59428e52, type: 3}
    - time: 0.06666667
      value: {fileID: 21300000, guid: 1a3cf6129726e07448aa3358dcaf2d56, type: 3}
    - time: 0.1
      value: {fileID: 21300000, guid: 09eaf4b4045d4564fb33cb20c7616418, type: 3}
    - time: 0.13333334
      value: {fileID: 21300000, guid: c464208256b18ef42b9d3513146304f7, type: 3}
    - time: 0.16666667
      value: {fileID: 21300000, guid: ce358220b61ff554abc91b83d2724b5a, type: 3}
    - time: 0.2
      value: {fileID: 21300000, guid: 8118ff2c905eac746b106784ec7db2c1, type: 3}
    - time: 0.23333333
      value: {fileID: 21300000, guid: 79b4384940815654bbed91af3401f03f, type: 3}
    attribute: m_Sprite
    path: 
    classID: 212
    script: {fileID: 0}
  m_SampleRate: 60
  m_WrapMode: 0
  m_Bounds:
    m_Center: {x: 0, y: 0, z: 0}
    m_Extent: {x: 0, y: 0, z: 0}
  m_ClipBindingConstant:
    genericBindings:
    - serializedVersion: 2
      path: 0
      attribute: 0
      script: {fileID: 0}
      typeID: 212
      customType: 23
      isPPtrCurve: 1
    pptrCurveMapping:
    - {fileID: 21300000, guid: b789a9545a25bd640b6e0764f0c0a5be, type: 3}
    - {fileID: 21300000, guid: a03d77a099e5e6248b21dfde59428e52, type: 3}
    - {fileID: 21300000, guid: 1a3cf6129726e07448aa3358dcaf2d56, type: 3}
    - {fileID: 21300000, guid: 09eaf4b4045d4564fb33cb20c7616418, type: 3}
    - {fileID: 21300000, guid: c464208256b18ef42b9d3513146304f7, type: 3}
    - {fileID: 21300000, guid: ce358220b61ff554abc91b83d2724b5a, type: 3}
    - {fileID: 21300000, guid: 8118ff2c905eac746b106784ec7db2c1, type: 3}
    - {fileID: 21300000, guid: 79b4384940815654bbed91af3401f03f, type: 3}
  m_AnimationClipSettings:
    serializedVersion: 2
    m_AdditiveReferencePoseClip: {fileID: 0}
    m_AdditiveReferencePoseTime: 0
    m_StartTime: 0
    m_StopTime: 0.25
    m_OrientationOffsetY: 0
    m_Level: 0
    m_CycleOffset: 0
    m_HasAdditiveReferencePose: 0
    m_LoopTime: 0
    m_LoopBlend: 0
    m_LoopBlendOrientation: 0
    m_LoopBlendPositionY: 0
    m_LoopBlendPositionXZ: 0
    m_KeepOriginalOrientation: 0
    m_KeepOriginalPositionY: 1
    m_KeepOriginalPositionXZ: 0
    m_HeightFromFeet: 0
    m_Mirror: 0
  m_EditorCurves: []
  m_EulerEditorCurves: []
  m_HasGenericRootTransform: 0
  m_HasMotionFloatCurves: 0
  m_Events: []
